EESchema Schematic File Version 2
LIBS:propeller4550-rescue
LIBS:power
LIBS:device
LIBS:transistors
LIBS:conn
LIBS:linear
LIBS:regul
LIBS:74xx
LIBS:cmos4000
LIBS:adc-dac
LIBS:memory
LIBS:xilinx
LIBS:microcontrollers
LIBS:dsp
LIBS:microchip
LIBS:analog_switches
LIBS:motorola
LIBS:texas
LIBS:intel
LIBS:audio
LIBS:interface
LIBS:digital-audio
LIBS:philips
LIBS:display
LIBS:cypress
LIBS:siliconi
LIBS:opto
LIBS:atmel
LIBS:contrib
LIBS:valves
LIBS:propeller4550-cache
EELAYER 25 0
EELAYER END
$Descr A4 11693 8268
encoding utf-8
Sheet 1 1
Title ""
Date ""
Rev ""
Comp ""
Comment1 ""
Comment2 ""
Comment3 ""
Comment4 ""
$EndDescr
$Comp
L PIC184550 U1
U 1 1 57E87D9A
P 3350 4100
F 0 "U1" H 3350 4000 50  0000 C CNN
F 1 "PIC184550" H 3350 4200 50  0000 C CNN
F 2 "Housings_QFP:TQFP-44_10x10mm_Pitch0.8mm" H 3350 4100 50  0001 C CNN
F 3 "DOCUMENTATION" H 3350 4100 50  0001 C CNN
	1    3350 4100
	1    0    0    -1  
$EndComp
Entry Wire Line
	2750 1650 2850 1750
Entry Wire Line
	2850 1650 2950 1750
Entry Wire Line
	2950 1650 3050 1750
Entry Wire Line
	3050 1650 3150 1750
Entry Wire Line
	3150 1650 3250 1750
Entry Wire Line
	3250 1650 3350 1750
Entry Wire Line
	3350 1650 3450 1750
Entry Wire Line
	3450 1650 3550 1750
Entry Wire Line
	3550 1650 3650 1750
Entry Wire Line
	3650 1650 3750 1750
Entry Wire Line
	6100 4600 6200 4700
Entry Wire Line
	6100 4500 6200 4600
Entry Wire Line
	6100 4400 6200 4500
Entry Wire Line
	6100 4300 6200 4400
Entry Wire Line
	6100 4200 6200 4300
Entry Wire Line
	6100 4100 6200 4200
Entry Wire Line
	6100 4000 6200 4100
Entry Wire Line
	6100 3900 6200 4000
Entry Wire Line
	6100 3800 6200 3900
Entry Wire Line
	6100 3700 6200 3800
Entry Wire Line
	3050 6500 3150 6600
Entry Wire Line
	3150 6500 3250 6600
Entry Wire Line
	3250 6500 3350 6600
Entry Wire Line
	3350 6500 3450 6600
Entry Wire Line
	3450 6500 3550 6600
Entry Wire Line
	3550 6500 3650 6600
Entry Wire Line
	3650 6500 3750 6600
Entry Wire Line
	3750 6500 3850 6600
Entry Wire Line
	3850 6500 3950 6600
Entry Wire Line
	650  3600 750  3700
Entry Wire Line
	650  3500 750  3600
Entry Wire Line
	650  3700 750  3800
Entry Wire Line
	650  3800 750  3900
Entry Wire Line
	650  3900 750  4000
Entry Wire Line
	650  4000 750  4100
Entry Wire Line
	650  4100 750  4200
Entry Wire Line
	650  4200 750  4300
Entry Wire Line
	650  4300 750  4400
Entry Wire Line
	650  4400 750  4500
Entry Wire Line
	650  4500 750  4600
Text Label 800  3700 0    60   ~ 0
RD4
Text Label 800  3800 0    60   ~ 0
RD5
Text Label 800  3900 0    60   ~ 0
RD6
Text Label 800  4000 0    60   ~ 0
RD7
Text Label 800  4100 0    60   ~ 0
VSS
Text Label 800  4200 0    60   ~ 0
VDD
Text Label 800  4300 0    60   ~ 0
INT0
Text Label 800  4400 0    60   ~ 0
RB1
Text Label 800  4500 0    60   ~ 0
RB2
Text Label 800  4600 0    60   ~ 0
RB3
Text Label 3850 6450 1    60   ~ 0
RA3
Text Label 3750 6450 1    60   ~ 0
RA2
Text Label 3650 6450 1    60   ~ 0
RA1
Text Label 3550 6450 1    60   ~ 0
RA0
Text Label 3450 6450 1    60   ~ 0
~MCLR
Text Label 3350 6450 1    60   ~ 0
RB7
Text Label 3250 6450 1    60   ~ 0
RB6
Text Label 3150 6450 1    60   ~ 0
RB5
Text Label 3050 6450 1    60   ~ 0
RB4
Text Label 5900 4600 0    60   ~ 0
RA4
Text Label 5900 4500 0    60   ~ 0
RA5
Text Label 5900 4400 0    60   ~ 0
RE0
Text Label 5900 4300 0    60   ~ 0
RE1
Text Label 5900 4200 0    60   ~ 0
RE2
Text Label 5900 4100 0    60   ~ 0
VDD
Text Label 5900 4000 0    60   ~ 0
VSS
Text Label 5850 3900 0    60   ~ 0
OSC1
Text Label 5850 3800 0    60   ~ 0
OSC2
Text Label 5850 3700 0    60   ~ 0
RC0
Text Label 3750 2000 1    60   ~ 0
RC1
Text Label 3650 2000 1    60   ~ 0
RC2
Text Label 3550 2000 1    60   ~ 0
VUSB
Text Label 3450 2000 1    60   ~ 0
RD0
Text Label 3350 2000 1    60   ~ 0
RD1
Text Label 3150 2000 1    60   ~ 0
RD3
Text Label 3250 2000 1    60   ~ 0
RD2
Text Label 3050 2000 1    60   ~ 0
D-
Text Label 2950 2000 1    60   ~ 0
D+
Text Label 2850 2000 1    60   ~ 0
TX
Entry Wire Line
	6200 700  6300 800 
Entry Wire Line
	6200 800  6300 900 
Entry Wire Line
	6200 900  6300 1000
Entry Wire Line
	6200 1000 6300 1100
Entry Wire Line
	6200 1100 6300 1200
Entry Wire Line
	6200 1200 6300 1300
Entry Wire Line
	6200 1300 6300 1400
Entry Wire Line
	6200 1400 6300 1500
Entry Wire Line
	6200 1700 6300 1800
Entry Wire Line
	6200 1800 6300 1900
Entry Wire Line
	6200 1900 6300 2000
Entry Wire Line
	6200 2000 6300 2100
Entry Wire Line
	6200 2100 6300 2200
Entry Wire Line
	6200 2200 6300 2300
Entry Wire Line
	6200 2300 6300 2400
Entry Wire Line
	6200 2400 6300 2500
Text Label 6400 900  0    60   ~ 0
RB1
Text Label 6400 1000 0    60   ~ 0
RB2
Text Label 6400 1100 0    60   ~ 0
RB3
Text Label 6400 1200 0    60   ~ 0
RB4
Text Label 6400 1300 0    60   ~ 0
RB5
Text Label 6400 1400 0    60   ~ 0
RB6
Text Label 6400 1500 0    60   ~ 0
RB7
$Comp
L R R26
U 1 1 57E88B9D
P 10500 950
F 0 "R26" V 10580 950 50  0000 C CNN
F 1 "10K" V 10500 950 50  0000 C CNN
F 2 "Resistors_SMD:R_0805_HandSoldering" V 10430 950 50  0001 C CNN
F 3 "" H 10500 950 50  0000 C CNN
	1    10500 950 
	1    0    0    -1  
$EndComp
$Comp
L GND #PWR01
U 1 1 57E88D32
P 10500 2100
F 0 "#PWR01" H 10500 1850 50  0001 C CNN
F 1 "GND" H 10500 1950 50  0000 C CNN
F 2 "" H 10500 2100 50  0000 C CNN
F 3 "" H 10500 2100 50  0000 C CNN
	1    10500 2100
	1    0    0    -1  
$EndComp
$Comp
L SW_PUSH SW1
U 1 1 57E88D4E
P 10500 1600
F 0 "SW1" H 10650 1710 50  0000 C CNN
F 1 "SW_PUSH" H 10500 1520 50  0000 C CNN
F 2 "Choke_SMD:Choke_SMD_6.3x6.3_H3" H 10500 1600 50  0001 C CNN
F 3 "" H 10500 1600 50  0000 C CNN
	1    10500 1600
	0    1    1    0   
$EndComp
$Comp
L VCC #PWR02
U 1 1 57E88EBB
P 10500 800
F 0 "#PWR02" H 10500 650 50  0001 C CNN
F 1 "VCC" H 10500 950 50  0000 C CNN
F 2 "" H 10500 800 50  0000 C CNN
F 3 "" H 10500 800 50  0000 C CNN
	1    10500 800 
	1    0    0    -1  
$EndComp
Text GLabel 10600 1200 2    60   Input ~ 0
~MCLR
$Comp
L USB_B-RESCUE-propeller4550 P1
U 1 1 57E88F42
P 1050 7250
F 0 "P1" H 1250 7050 50  0000 C CNN
F 1 "USB_B" H 1000 7450 50  0000 C CNN
F 2 "Connect:USB_Mini-B" V 1000 7150 50  0001 C CNN
F 3 "" V 1000 7150 50  0000 C CNN
	1    1050 7250
	-1   0    0    1   
$EndComp
Entry Wire Line
	850  6600 950  6700
Entry Wire Line
	950  6600 1050 6700
Entry Wire Line
	1050 6600 1150 6700
Entry Wire Line
	1150 6600 1250 6700
$Comp
L GND #PWR03
U 1 1 57E8920D
P 750 7450
F 0 "#PWR03" H 750 7200 50  0001 C CNN
F 1 "GND" H 750 7300 50  0000 C CNN
F 2 "" H 750 7450 50  0000 C CNN
F 3 "" H 750 7450 50  0000 C CNN
	1    750  7450
	1    0    0    -1  
$EndComp
Text Label 1150 6850 1    60   ~ 0
D-
Text Label 1050 6850 1    60   ~ 0
D+
$Comp
L C C1
U 1 1 57E89347
P 1500 7200
F 0 "C1" H 1525 7300 50  0000 L CNN
F 1 "220nF" H 1525 7100 50  0000 L CNN
F 2 "Capacitors_SMD:C_0603" H 1538 7050 50  0001 C CNN
F 3 "" H 1500 7200 50  0000 C CNN
	1    1500 7200
	1    0    0    -1  
$EndComp
Entry Wire Line
	1400 6600 1500 6700
$Comp
L GND #PWR04
U 1 1 57E8949E
P 1500 7450
F 0 "#PWR04" H 1500 7200 50  0001 C CNN
F 1 "GND" H 1500 7300 50  0000 C CNN
F 2 "" H 1500 7450 50  0000 C CNN
F 3 "" H 1500 7450 50  0000 C CNN
	1    1500 7450
	1    0    0    -1  
$EndComp
$Comp
L Crystal Y1
U 1 1 57E89535
P 2300 6950
F 0 "Y1" H 2300 7100 50  0000 C CNN
F 1 "Crystal" H 2300 6800 50  0000 C CNN
F 2 "Crystals:Crystal_HC49-SD_SMD" H 2300 6950 50  0001 C CNN
F 3 "" H 2300 6950 50  0000 C CNN
	1    2300 6950
	1    0    0    -1  
$EndComp
$Comp
L C C3
U 1 1 57E8958E
P 2650 7200
F 0 "C3" H 2675 7300 50  0000 L CNN
F 1 "22pF" H 2675 7100 50  0000 L CNN
F 2 "Capacitors_SMD:C_0603" H 2688 7050 50  0001 C CNN
F 3 "" H 2650 7200 50  0000 C CNN
	1    2650 7200
	1    0    0    -1  
$EndComp
$Comp
L C C2
U 1 1 57E895E6
P 1900 7200
F 0 "C2" H 1925 7300 50  0000 L CNN
F 1 "22pF" H 1925 7100 50  0000 L CNN
F 2 "Capacitors_SMD:C_0603" H 1938 7050 50  0001 C CNN
F 3 "" H 1900 7200 50  0000 C CNN
	1    1900 7200
	1    0    0    -1  
$EndComp
$Comp
L GND #PWR05
U 1 1 57E896FF
P 2650 7450
F 0 "#PWR05" H 2650 7200 50  0001 C CNN
F 1 "GND" H 2650 7300 50  0000 C CNN
F 2 "" H 2650 7450 50  0000 C CNN
F 3 "" H 2650 7450 50  0000 C CNN
	1    2650 7450
	1    0    0    -1  
$EndComp
$Comp
L GND #PWR06
U 1 1 57E89727
P 1900 7450
F 0 "#PWR06" H 1900 7200 50  0001 C CNN
F 1 "GND" H 1900 7300 50  0000 C CNN
F 2 "" H 1900 7450 50  0000 C CNN
F 3 "" H 1900 7450 50  0000 C CNN
	1    1900 7450
	1    0    0    -1  
$EndComp
Entry Wire Line
	1800 6600 1900 6700
Entry Wire Line
	2550 6600 2650 6700
Text Label 1500 6950 1    60   ~ 0
VUSB
Text Label 1900 6900 1    60   ~ 0
OSC1
Text Label 2650 6900 1    60   ~ 0
OSC2
Text Label 1250 6850 1    60   ~ 0
VDD
Text Label 950  6850 1    60   ~ 0
VSS
$Comp
L VCC #PWR07
U 1 1 57E8B1AD
P 9900 1600
F 0 "#PWR07" H 9900 1450 50  0001 C CNN
F 1 "VCC" H 9900 1750 50  0000 C CNN
F 2 "" H 9900 1600 50  0000 C CNN
F 3 "" H 9900 1600 50  0000 C CNN
	1    9900 1600
	1    0    0    -1  
$EndComp
$Comp
L GND #PWR08
U 1 1 57E8B239
P 10000 950
F 0 "#PWR08" H 10000 700 50  0001 C CNN
F 1 "GND" H 10000 800 50  0000 C CNN
F 2 "" H 10000 950 50  0000 C CNN
F 3 "" H 10000 950 50  0000 C CNN
	1    10000 950 
	1    0    0    -1  
$EndComp
Text GLabel 9900 1750 3    60   Input ~ 0
VCC
Text GLabel 10000 800  1    60   Input ~ 0
VSS
Text GLabel 3050 7000 3    60   Input ~ 0
VCC
Text GLabel 3250 7000 3    60   Input ~ 0
VSS
Entry Wire Line
	2950 6600 3050 6700
Entry Wire Line
	3150 6600 3250 6700
Text Label 3050 6850 1    60   ~ 0
VDD
Text Label 3250 6850 1    60   ~ 0
VSS
Text Label 800  3600 0    60   ~ 0
RX
$Comp
L LED-RESCUE-propeller4550 D1
U 1 1 57E8C14E
P 8150 800
F 0 "D1" H 8150 900 50  0000 C CNN
F 1 "LED" H 8250 900 50  0000 C CNN
F 2 "LEDs:LED_PLCC_2835" H 8150 800 50  0001 C CNN
F 3 "" H 8150 800 50  0000 C CNN
	1    8150 800 
	1    0    0    -1  
$EndComp
$Comp
L LED-RESCUE-propeller4550 D13
U 1 1 57E8C245
P 8550 900
F 0 "D13" H 8550 1000 50  0000 C CNN
F 1 "LED" H 8550 800 50  0000 C CNN
F 2 "LEDs:LED_PLCC_2835" H 8550 900 50  0001 C CNN
F 3 "" H 8550 900 50  0000 C CNN
	1    8550 900 
	1    0    0    -1  
$EndComp
$Comp
L LED-RESCUE-propeller4550 D2
U 1 1 57E8C27A
P 8150 1000
F 0 "D2" H 8150 1100 50  0000 C CNN
F 1 "LED" H 8150 900 50  0000 C CNN
F 2 "LEDs:LED_PLCC_2835" H 8150 1000 50  0001 C CNN
F 3 "" H 8150 1000 50  0000 C CNN
	1    8150 1000
	1    0    0    -1  
$EndComp
$Comp
L LED-RESCUE-propeller4550 D14
U 1 1 57E8C2C1
P 8550 1100
F 0 "D14" H 8550 1200 50  0000 C CNN
F 1 "LED" H 8550 1000 50  0000 C CNN
F 2 "LEDs:LED_PLCC_2835" H 8550 1100 50  0001 C CNN
F 3 "" H 8550 1100 50  0000 C CNN
	1    8550 1100
	1    0    0    -1  
$EndComp
$Comp
L LED-RESCUE-propeller4550 D3
U 1 1 57E8C302
P 8150 1200
F 0 "D3" H 8150 1300 50  0000 C CNN
F 1 "LED" H 8150 1100 50  0000 C CNN
F 2 "LEDs:LED_PLCC_2835" H 8150 1200 50  0001 C CNN
F 3 "" H 8150 1200 50  0000 C CNN
	1    8150 1200
	1    0    0    -1  
$EndComp
$Comp
L LED-RESCUE-propeller4550 D15
U 1 1 57E8C339
P 8550 1300
F 0 "D15" H 8550 1400 50  0000 C CNN
F 1 "LED" H 8550 1200 50  0000 C CNN
F 2 "LEDs:LED_PLCC_2835" H 8550 1300 50  0001 C CNN
F 3 "" H 8550 1300 50  0000 C CNN
	1    8550 1300
	1    0    0    -1  
$EndComp
$Comp
L LED-RESCUE-propeller4550 D4
U 1 1 57E8C382
P 8150 1400
F 0 "D4" H 8150 1500 50  0000 C CNN
F 1 "LED" H 8150 1300 50  0000 C CNN
F 2 "LEDs:LED_PLCC_2835" H 8150 1400 50  0001 C CNN
F 3 "" H 8150 1400 50  0000 C CNN
	1    8150 1400
	1    0    0    -1  
$EndComp
$Comp
L LED-RESCUE-propeller4550 D16
U 1 1 57E8C3D3
P 8550 1500
F 0 "D16" H 8550 1600 50  0000 C CNN
F 1 "LED" H 8550 1400 50  0000 C CNN
F 2 "LEDs:LED_PLCC_2835" H 8550 1500 50  0001 C CNN
F 3 "" H 8550 1500 50  0000 C CNN
	1    8550 1500
	1    0    0    -1  
$EndComp
$Comp
L VCC #PWR09
U 1 1 57E8CAB9
P 9500 700
F 0 "#PWR09" H 9500 550 50  0001 C CNN
F 1 "VCC" H 9500 850 50  0000 C CNN
F 2 "" H 9500 700 50  0000 C CNN
F 3 "" H 9500 700 50  0000 C CNN
	1    9500 700 
	1    0    0    -1  
$EndComp
$Comp
L R R14
U 1 1 57E8CCB3
P 9250 900
F 0 "R14" V 9330 900 50  0000 C CNN
F 1 "330" V 9250 900 50  0000 C CNN
F 2 "Resistors_SMD:R_0805_HandSoldering" V 9180 900 50  0001 C CNN
F 3 "" H 9250 900 50  0000 C CNN
	1    9250 900 
	0    1    1    0   
$EndComp
$Comp
L R R5
U 1 1 57E8CD1E
P 8950 1400
F 0 "R5" V 9030 1400 50  0000 C CNN
F 1 "330" V 8950 1400 50  0000 C CNN
F 2 "Resistors_SMD:R_0805_HandSoldering" V 8880 1400 50  0001 C CNN
F 3 "" H 8950 1400 50  0000 C CNN
	1    8950 1400
	0    1    1    0   
$EndComp
$Comp
L R R16
U 1 1 57E8CD6F
P 9250 1300
F 0 "R16" V 9330 1300 50  0000 C CNN
F 1 "330" V 9250 1300 50  0000 C CNN
F 2 "Resistors_SMD:R_0805_HandSoldering" V 9180 1300 50  0001 C CNN
F 3 "" H 9250 1300 50  0000 C CNN
	1    9250 1300
	0    1    1    0   
$EndComp
$Comp
L R R4
U 1 1 57E8CDBC
P 8950 1200
F 0 "R4" V 9030 1200 50  0000 C CNN
F 1 "330" V 8950 1200 50  0000 C CNN
F 2 "Resistors_SMD:R_0805_HandSoldering" V 8880 1200 50  0001 C CNN
F 3 "" H 8950 1200 50  0000 C CNN
	1    8950 1200
	0    1    1    0   
$EndComp
$Comp
L R R17
U 1 1 57E8CE0F
P 9250 1500
F 0 "R17" V 9330 1500 50  0000 C CNN
F 1 "330" V 9250 1500 50  0000 C CNN
F 2 "Resistors_SMD:R_0805_HandSoldering" V 9180 1500 50  0001 C CNN
F 3 "" H 9250 1500 50  0000 C CNN
	1    9250 1500
	0    1    1    0   
$EndComp
$Comp
L R R15
U 1 1 57E8CF0C
P 9250 1100
F 0 "R15" V 9330 1100 50  0000 C CNN
F 1 "330" V 9250 1100 50  0000 C CNN
F 2 "Resistors_SMD:R_0805_HandSoldering" V 9180 1100 50  0001 C CNN
F 3 "" H 9250 1100 50  0000 C CNN
	1    9250 1100
	0    1    1    0   
$EndComp
$Comp
L R R3
U 1 1 57E8CF8F
P 8950 1000
F 0 "R3" V 9030 1000 50  0000 C CNN
F 1 "330" V 8950 1000 50  0000 C CNN
F 2 "Resistors_SMD:R_0805_HandSoldering" V 8880 1000 50  0001 C CNN
F 3 "" H 8950 1000 50  0000 C CNN
	1    8950 1000
	0    1    1    0   
$EndComp
$Comp
L R R2
U 1 1 57E8D0AA
P 8950 800
F 0 "R2" V 9030 800 50  0000 C CNN
F 1 "330" V 8950 800 50  0000 C CNN
F 2 "Resistors_SMD:R_0805_HandSoldering" V 8880 800 50  0001 C CNN
F 3 "" H 8950 800 50  0000 C CNN
	1    8950 800 
	0    1    1    0   
$EndComp
$Comp
L LED-RESCUE-propeller4550 D5
U 1 1 57E8E806
P 8150 1800
F 0 "D5" H 8150 1900 50  0000 C CNN
F 1 "LED" H 8150 1700 50  0000 C CNN
F 2 "LEDs:LED_PLCC_2835" H 8150 1800 50  0001 C CNN
F 3 "" H 8150 1800 50  0000 C CNN
	1    8150 1800
	1    0    0    -1  
$EndComp
$Comp
L LED-RESCUE-propeller4550 D17
U 1 1 57E8E80C
P 8550 1900
F 0 "D17" H 8550 2000 50  0000 C CNN
F 1 "LED" H 8550 1800 50  0000 C CNN
F 2 "LEDs:LED_PLCC_2835" H 8550 1900 50  0001 C CNN
F 3 "" H 8550 1900 50  0000 C CNN
	1    8550 1900
	1    0    0    -1  
$EndComp
$Comp
L LED-RESCUE-propeller4550 D6
U 1 1 57E8E812
P 8150 2000
F 0 "D6" H 8150 2100 50  0000 C CNN
F 1 "LED" H 8150 1900 50  0000 C CNN
F 2 "LEDs:LED_PLCC_2835" H 8150 2000 50  0001 C CNN
F 3 "" H 8150 2000 50  0000 C CNN
	1    8150 2000
	1    0    0    -1  
$EndComp
$Comp
L LED-RESCUE-propeller4550 D18
U 1 1 57E8E818
P 8550 2100
F 0 "D18" H 8550 2200 50  0000 C CNN
F 1 "LED" H 8550 2000 50  0000 C CNN
F 2 "LEDs:LED_PLCC_2835" H 8550 2100 50  0001 C CNN
F 3 "" H 8550 2100 50  0000 C CNN
	1    8550 2100
	1    0    0    -1  
$EndComp
$Comp
L LED-RESCUE-propeller4550 D7
U 1 1 57E8E81E
P 8150 2200
F 0 "D7" H 8150 2300 50  0000 C CNN
F 1 "LED" H 8150 2100 50  0000 C CNN
F 2 "LEDs:LED_PLCC_2835" H 8150 2200 50  0001 C CNN
F 3 "" H 8150 2200 50  0000 C CNN
	1    8150 2200
	1    0    0    -1  
$EndComp
$Comp
L LED-RESCUE-propeller4550 D19
U 1 1 57E8E824
P 8550 2300
F 0 "D19" H 8550 2400 50  0000 C CNN
F 1 "LED" H 8550 2200 50  0000 C CNN
F 2 "LEDs:LED_PLCC_2835" H 8550 2300 50  0001 C CNN
F 3 "" H 8550 2300 50  0000 C CNN
	1    8550 2300
	1    0    0    -1  
$EndComp
$Comp
L LED-RESCUE-propeller4550 D8
U 1 1 57E8E82A
P 8150 2400
F 0 "D8" H 8150 2500 50  0000 C CNN
F 1 "LED" H 8150 2300 50  0000 C CNN
F 2 "LEDs:LED_PLCC_2835" H 8150 2400 50  0001 C CNN
F 3 "" H 8150 2400 50  0000 C CNN
	1    8150 2400
	1    0    0    -1  
$EndComp
$Comp
L LED-RESCUE-propeller4550 D20
U 1 1 57E8E830
P 8550 2500
F 0 "D20" H 8550 2600 50  0000 C CNN
F 1 "LED" H 8550 2400 50  0000 C CNN
F 2 "LEDs:LED_PLCC_2835" H 8550 2500 50  0001 C CNN
F 3 "" H 8550 2500 50  0000 C CNN
	1    8550 2500
	1    0    0    -1  
$EndComp
$Comp
L R R18
U 1 1 57E8E844
P 9250 1900
F 0 "R18" V 9330 1900 50  0000 C CNN
F 1 "330" V 9250 1900 50  0000 C CNN
F 2 "Resistors_SMD:R_0805_HandSoldering" V 9180 1900 50  0001 C CNN
F 3 "" H 9250 1900 50  0000 C CNN
	1    9250 1900
	0    1    1    0   
$EndComp
$Comp
L R R9
U 1 1 57E8E84A
P 8950 2400
F 0 "R9" V 9030 2400 50  0000 C CNN
F 1 "330" V 8950 2400 50  0000 C CNN
F 2 "Resistors_SMD:R_0805_HandSoldering" V 8880 2400 50  0001 C CNN
F 3 "" H 8950 2400 50  0000 C CNN
	1    8950 2400
	0    1    1    0   
$EndComp
$Comp
L R R20
U 1 1 57E8E850
P 9250 2300
F 0 "R20" V 9330 2300 50  0000 C CNN
F 1 "330" V 9250 2300 50  0000 C CNN
F 2 "Resistors_SMD:R_0805_HandSoldering" V 9180 2300 50  0001 C CNN
F 3 "" H 9250 2300 50  0000 C CNN
	1    9250 2300
	0    1    1    0   
$EndComp
$Comp
L R R8
U 1 1 57E8E856
P 8950 2200
F 0 "R8" V 9030 2200 50  0000 C CNN
F 1 "330" V 8950 2200 50  0000 C CNN
F 2 "Resistors_SMD:R_0805_HandSoldering" V 8880 2200 50  0001 C CNN
F 3 "" H 8950 2200 50  0000 C CNN
	1    8950 2200
	0    1    1    0   
$EndComp
$Comp
L R R21
U 1 1 57E8E85C
P 9250 2500
F 0 "R21" V 9330 2500 50  0000 C CNN
F 1 "330" V 9250 2500 50  0000 C CNN
F 2 "Resistors_SMD:R_0805_HandSoldering" V 9180 2500 50  0001 C CNN
F 3 "" H 9250 2500 50  0000 C CNN
	1    9250 2500
	0    1    1    0   
$EndComp
$Comp
L R R19
U 1 1 57E8E862
P 9250 2100
F 0 "R19" V 9330 2100 50  0000 C CNN
F 1 "330" V 9250 2100 50  0000 C CNN
F 2 "Resistors_SMD:R_0805_HandSoldering" V 9180 2100 50  0001 C CNN
F 3 "" H 9250 2100 50  0000 C CNN
	1    9250 2100
	0    1    1    0   
$EndComp
$Comp
L R R7
U 1 1 57E8E868
P 8950 2000
F 0 "R7" V 9030 2000 50  0000 C CNN
F 1 "330" V 8950 2000 50  0000 C CNN
F 2 "Resistors_SMD:R_0805_HandSoldering" V 8880 2000 50  0001 C CNN
F 3 "" H 8950 2000 50  0000 C CNN
	1    8950 2000
	0    1    1    0   
$EndComp
$Comp
L R R6
U 1 1 57E8E86E
P 8950 1800
F 0 "R6" V 9030 1800 50  0000 C CNN
F 1 "330" V 8950 1800 50  0000 C CNN
F 2 "Resistors_SMD:R_0805_HandSoldering" V 8880 1800 50  0001 C CNN
F 3 "" H 8950 1800 50  0000 C CNN
	1    8950 1800
	0    1    1    0   
$EndComp
$Comp
L CONN_01X04 P2
U 1 1 57E8ED45
P 6950 4350
F 0 "P2" H 6950 4600 50  0000 C CNN
F 1 "CONN_01X04" V 7050 4350 50  0000 C CNN
F 2 "Pin_Headers:Pin_Header_Straight_1x04" H 6950 4350 50  0001 C CNN
F 3 "" H 6950 4350 50  0000 C CNN
	1    6950 4350
	1    0    0    -1  
$EndComp
Entry Wire Line
	6200 4100 6300 4200
Entry Wire Line
	6200 4200 6300 4300
Entry Wire Line
	6200 4300 6300 4400
Entry Wire Line
	6200 4400 6300 4500
Text Label 6550 4200 0    60   ~ 0
VDD
Text Label 6550 4300 0    60   ~ 0
VSS
Text Label 6550 4400 0    60   ~ 0
TX
Text Label 6550 4500 0    60   ~ 0
RX
Text Label 6400 1800 0    60   ~ 0
RD0
Text Label 6400 1900 0    60   ~ 0
RD1
Text Label 6400 2000 0    60   ~ 0
RD2
Text Label 6400 2100 0    60   ~ 0
RD3
Text Label 6400 2200 0    60   ~ 0
RD4
Text Label 6400 2300 0    60   ~ 0
RD5
Text Label 6400 2400 0    60   ~ 0
RD6
Text Label 6400 2500 0    60   ~ 0
RD7
Text GLabel 3550 7000 3    60   Input ~ 0
~MCLR
Entry Wire Line
	3450 6600 3550 6700
Entry Wire Line
	6200 2700 6300 2800
Entry Wire Line
	6200 2800 6300 2900
Entry Wire Line
	6200 2900 6300 3000
Entry Wire Line
	6200 3000 6300 3100
Entry Wire Line
	6200 3100 6300 3200
Entry Wire Line
	6200 3200 6300 3300
Entry Wire Line
	6200 3300 6300 3400
Entry Wire Line
	6200 3400 6300 3500
Text Label 6400 2800 0    60   ~ 0
RA0
Text Label 6400 2900 0    60   ~ 0
RA1
Text Label 6400 3000 0    60   ~ 0
RA2
Text Label 6400 3100 0    60   ~ 0
RA3
Text Label 6400 3200 0    60   ~ 0
RA4
Text Label 6400 3300 0    60   ~ 0
RA5
Text Label 6400 3400 0    60   ~ 0
RE0
Text Label 6400 3500 0    60   ~ 0
RE1
Text Label 6400 800  0    60   ~ 0
RC0
$Comp
L LED-RESCUE-propeller4550 D9
U 1 1 57E966D9
P 8150 2800
F 0 "D9" H 8150 2900 50  0000 C CNN
F 1 "LED" H 8150 2700 50  0000 C CNN
F 2 "LEDs:LED_PLCC_2835" H 8150 2800 50  0001 C CNN
F 3 "" H 8150 2800 50  0000 C CNN
	1    8150 2800
	1    0    0    -1  
$EndComp
$Comp
L LED-RESCUE-propeller4550 D21
U 1 1 57E966DF
P 8550 2900
F 0 "D21" H 8550 3000 50  0000 C CNN
F 1 "LED" H 8550 2800 50  0000 C CNN
F 2 "LEDs:LED_PLCC_2835" H 8550 2900 50  0001 C CNN
F 3 "" H 8550 2900 50  0000 C CNN
	1    8550 2900
	1    0    0    -1  
$EndComp
$Comp
L LED-RESCUE-propeller4550 D10
U 1 1 57E966E5
P 8150 3000
F 0 "D10" H 8150 3100 50  0000 C CNN
F 1 "LED" H 8150 2900 50  0000 C CNN
F 2 "LEDs:LED_PLCC_2835" H 8150 3000 50  0001 C CNN
F 3 "" H 8150 3000 50  0000 C CNN
	1    8150 3000
	1    0    0    -1  
$EndComp
$Comp
L LED-RESCUE-propeller4550 D22
U 1 1 57E966EB
P 8550 3100
F 0 "D22" H 8550 3200 50  0000 C CNN
F 1 "LED" H 8550 3000 50  0000 C CNN
F 2 "LEDs:LED_PLCC_2835" H 8550 3100 50  0001 C CNN
F 3 "" H 8550 3100 50  0000 C CNN
	1    8550 3100
	1    0    0    -1  
$EndComp
$Comp
L LED-RESCUE-propeller4550 D11
U 1 1 57E966F1
P 8150 3200
F 0 "D11" H 8150 3300 50  0000 C CNN
F 1 "LED" H 8150 3100 50  0000 C CNN
F 2 "LEDs:LED_PLCC_2835" H 8150 3200 50  0001 C CNN
F 3 "" H 8150 3200 50  0000 C CNN
	1    8150 3200
	1    0    0    -1  
$EndComp
$Comp
L LED-RESCUE-propeller4550 D23
U 1 1 57E966F7
P 8550 3300
F 0 "D23" H 8550 3400 50  0000 C CNN
F 1 "LED" H 8550 3200 50  0000 C CNN
F 2 "LEDs:LED_PLCC_2835" H 8550 3300 50  0001 C CNN
F 3 "" H 8550 3300 50  0000 C CNN
	1    8550 3300
	1    0    0    -1  
$EndComp
$Comp
L LED-RESCUE-propeller4550 D12
U 1 1 57E966FD
P 8150 3400
F 0 "D12" H 8150 3500 50  0000 C CNN
F 1 "LED" H 8150 3300 50  0000 C CNN
F 2 "LEDs:LED_PLCC_2835" H 8150 3400 50  0001 C CNN
F 3 "" H 8150 3400 50  0000 C CNN
	1    8150 3400
	1    0    0    -1  
$EndComp
$Comp
L LED-RESCUE-propeller4550 D24
U 1 1 57E96703
P 8550 3500
F 0 "D24" H 8550 3600 50  0000 C CNN
F 1 "LED" H 8550 3400 50  0000 C CNN
F 2 "LEDs:LED_PLCC_2835" H 8550 3500 50  0001 C CNN
F 3 "" H 8550 3500 50  0000 C CNN
	1    8550 3500
	1    0    0    -1  
$EndComp
$Comp
L R R22
U 1 1 57E96711
P 9250 2900
F 0 "R22" V 9330 2900 50  0000 C CNN
F 1 "330" V 9250 2900 50  0000 C CNN
F 2 "Resistors_SMD:R_0805_HandSoldering" V 9180 2900 50  0001 C CNN
F 3 "" H 9250 2900 50  0000 C CNN
	1    9250 2900
	0    1    1    0   
$EndComp
$Comp
L R R13
U 1 1 57E96717
P 8950 3400
F 0 "R13" V 9030 3400 50  0000 C CNN
F 1 "330" V 8950 3400 50  0000 C CNN
F 2 "Resistors_SMD:R_0805_HandSoldering" V 8880 3400 50  0001 C CNN
F 3 "" H 8950 3400 50  0000 C CNN
	1    8950 3400
	0    1    1    0   
$EndComp
$Comp
L R R24
U 1 1 57E9671D
P 9250 3300
F 0 "R24" V 9330 3300 50  0000 C CNN
F 1 "330" V 9250 3300 50  0000 C CNN
F 2 "Resistors_SMD:R_0805_HandSoldering" V 9180 3300 50  0001 C CNN
F 3 "" H 9250 3300 50  0000 C CNN
	1    9250 3300
	0    1    1    0   
$EndComp
$Comp
L R R12
U 1 1 57E96723
P 8950 3200
F 0 "R12" V 9030 3200 50  0000 C CNN
F 1 "330" V 8950 3200 50  0000 C CNN
F 2 "Resistors_SMD:R_0805_HandSoldering" V 8880 3200 50  0001 C CNN
F 3 "" H 8950 3200 50  0000 C CNN
	1    8950 3200
	0    1    1    0   
$EndComp
$Comp
L R R25
U 1 1 57E96729
P 9250 3500
F 0 "R25" V 9330 3500 50  0000 C CNN
F 1 "330" V 9250 3500 50  0000 C CNN
F 2 "Resistors_SMD:R_0805_HandSoldering" V 9180 3500 50  0001 C CNN
F 3 "" H 9250 3500 50  0000 C CNN
	1    9250 3500
	0    1    1    0   
$EndComp
$Comp
L R R23
U 1 1 57E9672F
P 9250 3100
F 0 "R23" V 9330 3100 50  0000 C CNN
F 1 "330" V 9250 3100 50  0000 C CNN
F 2 "Resistors_SMD:R_0805_HandSoldering" V 9180 3100 50  0001 C CNN
F 3 "" H 9250 3100 50  0000 C CNN
	1    9250 3100
	0    1    1    0   
$EndComp
$Comp
L R R11
U 1 1 57E96735
P 8950 3000
F 0 "R11" V 9030 3000 50  0000 C CNN
F 1 "330" V 8950 3000 50  0000 C CNN
F 2 "Resistors_SMD:R_0805_HandSoldering" V 8880 3000 50  0001 C CNN
F 3 "" H 8950 3000 50  0000 C CNN
	1    8950 3000
	0    1    1    0   
$EndComp
$Comp
L R R10
U 1 1 57E9673B
P 8950 2800
F 0 "R10" V 9030 2800 50  0000 C CNN
F 1 "330" V 8950 2800 50  0000 C CNN
F 2 "Resistors_SMD:R_0805_HandSoldering" V 8880 2800 50  0001 C CNN
F 3 "" H 8950 2800 50  0000 C CNN
	1    8950 2800
	0    1    1    0   
$EndComp
$Comp
L CONN_02X02 P6
U 1 1 57E9715B
P 7000 5050
F 0 "P6" H 7000 5200 50  0000 C CNN
F 1 "CONN_02X02" H 7000 4900 50  0000 C CNN
F 2 "Pin_Headers:Pin_Header_Straight_2x02" H 7000 3850 50  0001 C CNN
F 3 "" H 7000 3850 50  0000 C CNN
	1    7000 5050
	1    0    0    -1  
$EndComp
$Comp
L VCC #PWR010
U 1 1 57E983FB
P 7300 4900
F 0 "#PWR010" H 7300 4750 50  0001 C CNN
F 1 "VCC" H 7300 5050 50  0000 C CNN
F 2 "" H 7300 4900 50  0000 C CNN
F 3 "" H 7300 4900 50  0000 C CNN
	1    7300 4900
	1    0    0    -1  
$EndComp
$Comp
L GND #PWR011
U 1 1 57E9848F
P 6650 5650
F 0 "#PWR011" H 6650 5400 50  0001 C CNN
F 1 "GND" H 6650 5500 50  0000 C CNN
F 2 "" H 6650 5650 50  0000 C CNN
F 3 "" H 6650 5650 50  0000 C CNN
	1    6650 5650
	1    0    0    -1  
$EndComp
Text GLabel 7350 5100 2    60   Input ~ 0
INT0
Text GLabel 3850 7000 3    60   Input ~ 0
INT0
Entry Wire Line
	3750 6600 3850 6700
$Comp
L R R1
U 1 1 57E994AB
P 7300 5400
F 0 "R1" V 7380 5400 50  0000 C CNN
F 1 "10K" V 7300 5400 50  0000 C CNN
F 2 "Resistors_SMD:R_0805_HandSoldering" V 7230 5400 50  0001 C CNN
F 3 "" H 7300 5400 50  0000 C CNN
	1    7300 5400
	1    0    0    -1  
$EndComp
$Comp
L LED-RESCUE-propeller4550 D25
U 1 1 57E99EE2
P 10500 2900
F 0 "D25" H 10500 3000 50  0000 C CNN
F 1 "LED" H 10500 2800 50  0000 C CNN
F 2 "LEDs:LED_0805" H 10500 2900 50  0001 C CNN
F 3 "" H 10500 2900 50  0000 C CNN
	1    10500 2900
	0    -1   -1   0   
$EndComp
$Comp
L R R27
U 1 1 57E9A36F
P 10500 3400
F 0 "R27" V 10580 3400 50  0000 C CNN
F 1 "330" V 10500 3400 50  0000 C CNN
F 2 "Resistors_SMD:R_0603" V 10430 3400 50  0001 C CNN
F 3 "" H 10500 3400 50  0000 C CNN
	1    10500 3400
	1    0    0    -1  
$EndComp
$Comp
L GND #PWR012
U 1 1 57E9A60D
P 10500 3700
F 0 "#PWR012" H 10500 3450 50  0001 C CNN
F 1 "GND" H 10500 3550 50  0000 C CNN
F 2 "" H 10500 3700 50  0000 C CNN
F 3 "" H 10500 3700 50  0000 C CNN
	1    10500 3700
	1    0    0    -1  
$EndComp
$Comp
L VCC #PWR013
U 1 1 57E9A7B9
P 10500 2600
F 0 "#PWR013" H 10500 2450 50  0001 C CNN
F 1 "VCC" H 10500 2750 50  0000 C CNN
F 2 "" H 10500 2600 50  0000 C CNN
F 3 "" H 10500 2600 50  0000 C CNN
	1    10500 2600
	1    0    0    -1  
$EndComp
Wire Bus Line
	850  1650 6200 1650
Wire Bus Line
	6200 650  6200 6600
Wire Bus Line
	6200 6600 650  6600
Wire Bus Line
	650  6600 650  1950
Wire Wire Line
	3750 1750 3750 2300
Wire Wire Line
	3650 2300 3650 1750
Wire Wire Line
	3550 1750 3550 2300
Wire Wire Line
	3450 1750 3450 2300
Wire Wire Line
	3350 1750 3350 2300
Wire Wire Line
	3250 2300 3250 1750
Wire Wire Line
	3150 1750 3150 2300
Wire Wire Line
	3050 2300 3050 1750
Wire Wire Line
	2950 1750 2950 2300
Wire Wire Line
	2850 2300 2850 1750
Wire Wire Line
	5550 3700 6100 3700
Wire Wire Line
	6100 3800 5550 3800
Wire Wire Line
	5550 3900 6100 3900
Wire Wire Line
	6100 4000 5550 4000
Wire Wire Line
	5550 4100 6100 4100
Wire Wire Line
	6100 4200 5550 4200
Wire Wire Line
	5550 4300 6100 4300
Wire Wire Line
	6100 4400 5550 4400
Wire Wire Line
	5550 4500 6100 4500
Wire Wire Line
	6100 4600 5550 4600
Wire Wire Line
	3850 6500 3850 5900
Wire Wire Line
	3750 5900 3750 6500
Wire Wire Line
	3650 6500 3650 5900
Wire Wire Line
	3550 5900 3550 6500
Wire Wire Line
	3450 6500 3450 5900
Wire Wire Line
	3350 5900 3350 6500
Wire Wire Line
	3250 6500 3250 5900
Wire Wire Line
	3150 5900 3150 6500
Wire Wire Line
	3050 6500 3050 5900
Wire Wire Line
	750  3600 1150 3600
Wire Wire Line
	1150 3700 750  3700
Wire Wire Line
	1150 3800 750  3800
Wire Wire Line
	1150 3900 750  3900
Wire Wire Line
	1150 4000 750  4000
Wire Wire Line
	1150 4100 750  4100
Wire Wire Line
	1150 4200 750  4200
Wire Wire Line
	750  4300 1150 4300
Wire Wire Line
	1150 4400 750  4400
Wire Wire Line
	750  4500 1150 4500
Wire Wire Line
	1150 4600 750  4600
Wire Wire Line
	6300 800  7950 800 
Wire Wire Line
	6300 900  8350 900 
Wire Wire Line
	6300 1000 7950 1000
Wire Wire Line
	6300 1100 8350 1100
Wire Wire Line
	6300 1200 7950 1200
Wire Wire Line
	6300 1300 8350 1300
Wire Wire Line
	6300 1400 7950 1400
Wire Wire Line
	6300 1500 8350 1500
Wire Wire Line
	6300 1800 7950 1800
Wire Wire Line
	6300 1900 8350 1900
Wire Wire Line
	6300 2000 7950 2000
Wire Wire Line
	6300 2100 8350 2100
Wire Wire Line
	6300 2200 7950 2200
Wire Wire Line
	6300 2300 8350 2300
Wire Wire Line
	6300 2400 7950 2400
Wire Wire Line
	6300 2500 8350 2500
Wire Wire Line
	10500 2100 10500 1900
Wire Wire Line
	10500 1300 10500 1100
Wire Wire Line
	10600 1200 10500 1200
Connection ~ 10500 1200
Wire Wire Line
	1250 6700 1250 6950
Wire Wire Line
	1150 6950 1150 6700
Wire Wire Line
	1050 6700 1050 6950
Wire Wire Line
	950  6950 950  6700
Wire Wire Line
	750  7450 750  7350
Wire Wire Line
	1500 6700 1500 7050
Wire Wire Line
	1500 7450 1500 7350
Wire Wire Line
	2150 6950 1900 6950
Wire Wire Line
	1900 6700 1900 7050
Wire Wire Line
	2450 6950 2650 6950
Wire Wire Line
	2650 6700 2650 7050
Wire Wire Line
	1900 7450 1900 7350
Wire Wire Line
	2650 7350 2650 7450
Connection ~ 2650 6950
Connection ~ 1900 6950
Wire Wire Line
	9900 1750 9900 1600
Wire Wire Line
	10000 800  10000 950 
Wire Wire Line
	3250 7000 3250 6700
Wire Wire Line
	3050 7000 3050 6700
Wire Wire Line
	9100 800  9500 800 
Wire Wire Line
	9500 700  9500 3500
Wire Wire Line
	9500 1500 9400 1500
Wire Wire Line
	9400 1300 9500 1300
Connection ~ 9500 1300
Wire Wire Line
	9400 1100 9500 1100
Connection ~ 9500 1100
Wire Wire Line
	9400 900  9500 900 
Connection ~ 9500 900 
Wire Wire Line
	9100 1000 9500 1000
Connection ~ 9500 1000
Wire Wire Line
	9100 1200 9500 1200
Connection ~ 9500 1200
Wire Wire Line
	9500 1400 9100 1400
Connection ~ 9500 1400
Wire Wire Line
	9100 1500 8750 1500
Wire Wire Line
	8800 1400 8350 1400
Wire Wire Line
	8750 1300 9100 1300
Wire Wire Line
	8800 1200 8350 1200
Wire Wire Line
	8750 1100 9100 1100
Wire Wire Line
	8800 1000 8350 1000
Wire Wire Line
	8750 900  9100 900 
Wire Wire Line
	8800 800  8350 800 
Connection ~ 9500 800 
Wire Wire Line
	9100 1800 9500 1800
Wire Wire Line
	9500 2500 9400 2500
Wire Wire Line
	9400 2300 9500 2300
Connection ~ 9500 2300
Wire Wire Line
	9400 2100 9500 2100
Connection ~ 9500 2100
Wire Wire Line
	9400 1900 9500 1900
Connection ~ 9500 1900
Wire Wire Line
	9100 2000 9500 2000
Connection ~ 9500 2000
Wire Wire Line
	9100 2200 9500 2200
Connection ~ 9500 2200
Wire Wire Line
	9500 2400 9100 2400
Connection ~ 9500 2400
Wire Wire Line
	9100 2500 8750 2500
Wire Wire Line
	8800 2400 8350 2400
Wire Wire Line
	8750 2300 9100 2300
Wire Wire Line
	8800 2200 8350 2200
Wire Wire Line
	8750 2100 9100 2100
Wire Wire Line
	8800 2000 8350 2000
Wire Wire Line
	8750 1900 9100 1900
Wire Wire Line
	8800 1800 8350 1800
Connection ~ 9500 1800
Connection ~ 9500 1500
Wire Wire Line
	6750 4200 6300 4200
Wire Wire Line
	6750 4300 6300 4300
Wire Wire Line
	6300 4400 6750 4400
Wire Wire Line
	6750 4500 6300 4500
Wire Wire Line
	3550 6700 3550 7000
Wire Wire Line
	6300 2800 7950 2800
Wire Wire Line
	6300 2900 8350 2900
Wire Wire Line
	6300 3000 7950 3000
Wire Wire Line
	6300 3100 8350 3100
Wire Wire Line
	6300 3200 7950 3200
Wire Wire Line
	6300 3300 8350 3300
Wire Wire Line
	6300 3400 7950 3400
Wire Wire Line
	6300 3500 8350 3500
Wire Wire Line
	9500 2800 9100 2800
Wire Wire Line
	9500 3500 9400 3500
Wire Wire Line
	9400 3300 9500 3300
Connection ~ 9500 3300
Wire Wire Line
	9400 3100 9500 3100
Connection ~ 9500 3100
Wire Wire Line
	9400 2900 9500 2900
Connection ~ 9500 2900
Wire Wire Line
	9100 3000 9500 3000
Connection ~ 9500 3000
Wire Wire Line
	9100 3200 9500 3200
Connection ~ 9500 3200
Wire Wire Line
	9500 3400 9100 3400
Connection ~ 9500 3400
Wire Wire Line
	9100 3500 8750 3500
Wire Wire Line
	8800 3400 8350 3400
Wire Wire Line
	8750 3300 9100 3300
Wire Wire Line
	8800 3200 8350 3200
Wire Wire Line
	8750 3100 9100 3100
Wire Wire Line
	8800 3000 8350 3000
Wire Wire Line
	8750 2900 9100 2900
Wire Wire Line
	8800 2800 8350 2800
Connection ~ 9500 2800
Connection ~ 9500 2500
Wire Wire Line
	6650 5000 6650 5650
Wire Wire Line
	6650 5000 6750 5000
Wire Wire Line
	6750 5100 6650 5100
Connection ~ 6650 5100
Wire Wire Line
	7300 4900 7300 5000
Wire Wire Line
	7300 5000 7250 5000
Wire Wire Line
	7350 5100 7250 5100
Wire Wire Line
	3850 7000 3850 6700
Wire Wire Line
	7300 5250 7300 5100
Connection ~ 7300 5100
Wire Wire Line
	7300 5550 6650 5550
Connection ~ 6650 5550
Wire Wire Line
	10500 3250 10500 3100
Wire Wire Line
	10500 3700 10500 3550
Wire Wire Line
	10500 2600 10500 2700
$Comp
L CONN_01X02 P3
U 1 1 57FD17A3
P 9400 4650
F 0 "P3" H 9400 4800 50  0000 C CNN
F 1 "CONN_01X02" V 9500 4650 50  0000 C CNN
F 2 "Pin_Headers:Pin_Header_Straight_1x02" H 9400 4650 50  0001 C CNN
F 3 "" H 9400 4650 50  0000 C CNN
	1    9400 4650
	1    0    0    -1  
$EndComp
$Comp
L GND #PWR014
U 1 1 57FD1A23
P 8600 4950
F 0 "#PWR014" H 8600 4700 50  0001 C CNN
F 1 "GND" H 8600 4800 50  0000 C CNN
F 2 "" H 8600 4950 50  0000 C CNN
F 3 "" H 8600 4950 50  0000 C CNN
	1    8600 4950
	1    0    0    -1  
$EndComp
Wire Wire Line
	9200 4700 9050 4700
Wire Wire Line
	9050 4700 9050 4900
$Comp
L VCC #PWR015
U 1 1 57FD20C0
P 9100 4500
F 0 "#PWR015" H 9100 4350 50  0001 C CNN
F 1 "VCC" H 9100 4650 50  0000 C CNN
F 2 "" H 9100 4500 50  0000 C CNN
F 3 "" H 9100 4500 50  0000 C CNN
	1    9100 4500
	1    0    0    -1  
$EndComp
Wire Wire Line
	9100 4500 9100 4600
Wire Wire Line
	9100 4600 9200 4600
Wire Wire Line
	8600 4950 8600 4850
$Comp
L CP C4
U 1 1 57FD3284
P 8600 4700
F 0 "C4" H 8625 4800 50  0000 L CNN
F 1 "1500uF" H 8625 4600 50  0000 L CNN
F 2 "Capacitors_SMD:c_elec_10x10" H 8638 4550 50  0001 C CNN
F 3 "" H 8600 4700 50  0000 C CNN
	1    8600 4700
	1    0    0    -1  
$EndComp
Wire Wire Line
	8600 4550 9100 4550
Connection ~ 9100 4550
Wire Wire Line
	9050 4900 8600 4900
Connection ~ 8600 4900
$EndSCHEMATC
