G04 #@! TF.FileFunction,Soldermask,Top*
%FSLAX46Y46*%
G04 Gerber Fmt 4.6, Leading zero omitted, Abs format (unit mm)*
G04 Created by KiCad (PCBNEW 4.0.5+dfsg1-4~bpo8+1) date Tue Apr 11 18:03:37 2017*
%MOMM*%
%LPD*%
G01*
G04 APERTURE LIST*
%ADD10C,0.100000*%
%ADD11O,2.432000X1.900000*%
%ADD12C,3.400000*%
%ADD13R,2.500000X2.600000*%
%ADD14R,2.500000X1.700000*%
%ADD15C,1.299160*%
%ADD16R,2.127200X2.127200*%
%ADD17O,2.127200X2.127200*%
%ADD18R,1.900000X1.700000*%
%ADD19R,1.700000X1.900000*%
%ADD20C,2.432000*%
G04 APERTURE END LIST*
D10*
D11*
X38100000Y-43530000D03*
X38100000Y-40990000D03*
X38100000Y-38450000D03*
X38100000Y-35910000D03*
D12*
X101550000Y-29900000D03*
X101550000Y-48900000D03*
D13*
X118809906Y-42629882D03*
D14*
X118809906Y-40369882D03*
D15*
X29070000Y-35379640D03*
X29070000Y-30980360D03*
D13*
X86709906Y-42629882D03*
D14*
X86709906Y-40369882D03*
D13*
X97409906Y-42629882D03*
D14*
X97409906Y-40369882D03*
D13*
X108109906Y-42629882D03*
D14*
X108109906Y-40369882D03*
D13*
X166959906Y-42629882D03*
D14*
X166959906Y-40369882D03*
D13*
X156259906Y-42629882D03*
D14*
X156259906Y-40369882D03*
D13*
X145559906Y-42629882D03*
D14*
X145559906Y-40369882D03*
D13*
X134859906Y-42629882D03*
D14*
X134859906Y-40369882D03*
D13*
X43910006Y-42629882D03*
D14*
X43910006Y-40369882D03*
D13*
X54609906Y-42629882D03*
D14*
X54609906Y-40369882D03*
D13*
X65309906Y-42629882D03*
D14*
X65309906Y-40369882D03*
D13*
X76009906Y-42629882D03*
D14*
X76009906Y-40369882D03*
D13*
X92059906Y-42629882D03*
D14*
X92059906Y-40369882D03*
D13*
X102759906Y-42629882D03*
D14*
X102759906Y-40369882D03*
D13*
X113459906Y-42629882D03*
D14*
X113459906Y-40369882D03*
D13*
X124159906Y-42629882D03*
D14*
X124159906Y-40369882D03*
D13*
X161609906Y-42629882D03*
D14*
X161609906Y-40369882D03*
D13*
X150909906Y-42629882D03*
D14*
X150909906Y-40369882D03*
D13*
X140209906Y-42629882D03*
D14*
X140209906Y-40369882D03*
D13*
X129509906Y-42629882D03*
D14*
X129509906Y-40369882D03*
D13*
X49260006Y-42629882D03*
D14*
X49260006Y-40369882D03*
D13*
X59959906Y-42629882D03*
D14*
X59959906Y-40369882D03*
D13*
X70659906Y-42629882D03*
D14*
X70659906Y-40369882D03*
D13*
X81349906Y-42629882D03*
D14*
X81349906Y-40369882D03*
D16*
X173870000Y-40840000D03*
D17*
X176410000Y-40840000D03*
X173870000Y-38300000D03*
X176410000Y-38300000D03*
D18*
X56060000Y-32680000D03*
X53360000Y-32680000D03*
D19*
X86710000Y-38220000D03*
X86710000Y-35520000D03*
X97410000Y-35520000D03*
X97410000Y-38220000D03*
X108110000Y-35520000D03*
X108110000Y-38220000D03*
X118810000Y-35520000D03*
X118810000Y-38220000D03*
X166960000Y-35520000D03*
X166960000Y-38220000D03*
X156260000Y-35510000D03*
X156260000Y-38210000D03*
X145560000Y-35520000D03*
X145560000Y-38220000D03*
X134860000Y-38220000D03*
X134860000Y-35520000D03*
X43910000Y-35520000D03*
X43910000Y-38220000D03*
X54610000Y-35520000D03*
X54610000Y-38220000D03*
X65310000Y-35520000D03*
X65310000Y-38220000D03*
X76010000Y-35520000D03*
X76010000Y-38220000D03*
X92060000Y-35520000D03*
X92060000Y-38220000D03*
X102760000Y-35520000D03*
X102760000Y-38220000D03*
X113460000Y-35520000D03*
X113460000Y-38220000D03*
X124180000Y-35520000D03*
X124180000Y-38220000D03*
X161610000Y-35520000D03*
X161610000Y-38220000D03*
X150910000Y-35510000D03*
X150910000Y-38210000D03*
X140210000Y-35520000D03*
X140210000Y-38220000D03*
X129510000Y-35520000D03*
X129510000Y-38220000D03*
X49260000Y-35520000D03*
X49260000Y-38220000D03*
X59960000Y-35520000D03*
X59960000Y-38220000D03*
X70660000Y-35520000D03*
X70660000Y-38220000D03*
X81360000Y-35520000D03*
X81360000Y-38220000D03*
D20*
X38090000Y-48650000D03*
D10*
G36*
X39414000Y-47434000D02*
X41846000Y-47434000D01*
X41846000Y-49866000D01*
X39414000Y-49866000D01*
X39414000Y-47434000D01*
X39414000Y-47434000D01*
G37*
M02*
