,,,,1,2,3,4,5,6,7,8,9,10,11,12,13,14,15,16
,,,,,,,,,,,,,,,,,,,
,1,1,,,,,,,,,,,,,,,,,
,2,2,,,,,,,,,,,,,,,,,
,3,4,,,,,,,,,,,,,,,,,
,4,8,,,,,,,,1,1,1,1,,,,,,
,5,16,,,,,,,,1,1,1,1,,,,,,
,6,32,,,,,,,,1,1,1,1,1,,,,,
,7,64,,,,,,,1,1,1,1,1,1,,,,,
,8,128,,,,,,,1,1,,,1,1,,,,,
,9,1,,,,,,1,1,1,,,1,1,1,,,,
,10,2,,,,,,1,1,1,,,1,1,1,,,,
,11,4,,,,,,1,1,,,,,1,1,,,,
,12,8,,,,,1,1,1,,,,,1,1,1,,,
,13,16,,,,,1,1,1,,,,,1,1,1,,,
,14,32,,,,,1,1,,,,,,,1,1,,,
,15,64,,,,1,1,1,,,,,,,1,1,1,,
,16,128,,,,1,1,1,1,1,1,1,1,1,1,1,1,,
,17,128,,,1,1,1,1,1,1,1,1,1,1,1,1,1,1,
,18,64,,,1,1,1,,,,,,,,,1,1,1,
,19,32,,,1,1,,,,,,,,,,,1,1,
,20,16,,1,1,1,,,,,,,,,,,1,1,1
,21,8,,1,1,1,,,,,,,,,,,1,1,1
,22,4,,,,,,,,,,,,,,,,,
,23,2,,,,,,,,,,,,,,,,,
,24,1,,,,,,,,,,,,,,,,,
,,,,,,,,,,,,,,,,,,,
,,,,FF,FF,E7,,,,,,,,,,,,,
,,,,FF,FF,7,,,,,,,,,,,,,
,,,,FF,3F,7,,,,,,,,,,,,,
,,,,FF,7,3F,,,,,,,,,,,,,
,,,,FF,0,7F,,,,,,,,,,,,,
,,,,3F,60,7F,,,,,,,,,,,,,
,,,,7,7C,7F,,,,,,,,,,,,,
,,,,87,7F,7F,,,,,,,,,,,,,
,,,,87,7F,7F,,,,,,,,,,,,,
,,,,7,7C,7F,,,,,,,,,,,,,
,,,,1F,60,7F,,,,,,,,,,,,,
,,,,FF,0,7F,,,,,,,,,,,,,
,,,,FF,7,3F,,,,,,,,,,,,,
,,,,FF,3F,7,,,,,,,,,,,,,
,,,,FF,FF,7,,,,,,,,,,,,,
,,,,FF,FF,E7,,,,,,,,,,,,,
